com/config/CORSFilter.class
com/web/controller/WelcomeController.class
com/dao/UserDaoImpl.class
com/config/SpringWebConfig.class
com/servlet3/MyWebInitializer.class
com/model/QueryConstants.class
com/dao/UserDaoImpl$AppMapper.class
com/config/SpringRootConfig.class
com/config/db/HsqlDataSource.class
com/dao/UserDaoImpl$UserMapper.class
com/config/db/DerbyDataSource.class
com/dao/UserDao.class
com/model/User.class
com/dao/UserDaoImpl$1.class
com/config/db/H2DataSource.class
com/model/Application.class
